<?xml version="1.0" encoding="UTF-8" standalone="no"?>
<svg
   width="192"
   height="192"
   fill="none"
   version="1.1"
   id="svg4"
   sodipodi:docname="safari-pinned-tab.svg"
   inkscape:version="1.2.2 (b0a8486541, 2022-12-01)"
   xmlns:inkscape="http://www.inkscape.org/namespaces/inkscape"
   xmlns:sodipodi="http://sodipodi.sourceforge.net/DTD/sodipodi-0.dtd"
   xmlns="http://www.w3.org/2000/svg"
   xmlns:svg="http://www.w3.org/2000/svg">
  <defs
     id="defs8" />
  <sodipodi:namedview
     id="namedview6"
     pagecolor="#ffffff"
     bordercolor="#000000"
     borderopacity="0.25"
     inkscape:showpageshadow="2"
     inkscape:pageopacity="0.0"
     inkscape:pagecheckerboard="0"
     inkscape:deskcolor="#d1d1d1"
     showgrid="false"
     inkscape:zoom="1.2291667"
     inkscape:cx="96"
     inkscape:cy="96"
     inkscape:window-width="1366"
     inkscape:window-height="704"
     inkscape:window-x="0"
     inkscape:window-y="0"
     inkscape:window-maximized="1"
     inkscape:current-layer="svg4" />
  <path
     id="path2288"
     style="color:#000000;fill:#000000;stroke-width:15.9714;stroke-linecap:round;-inkscape-stroke:none"
     d="M 92.919569,-5.0000003e-7 91.063519,1.0917965 14.396104,45.3017 11.307881,50.69827 v 90.63461 l 3.088223,5.36539 L 92.919569,192 h 6.16085 l 78.523471,-45.30173 3.08823,-5.39658 V 50.69827 L 177.60389,45.33288 99.080419,-5.0000003e-7 Z M 95.999999,14.739233 166.374,55.36963 v 81.26074 L 95.999999,177.26075 25.625997,136.63037 V 55.36963 Z m 0,25.220467 -48.5303,28.02015 v 56.0403 l 48.5303,28.02011 48.530311,-28.02011 v -56.0403 z m 0.16378,9.42844 32.613491,18.43575 -33.284161,18.81004 -32.61348,-18.42792 z" />
</svg>
